<?xml version="1.0" encoding="utf-8" ?>
<svg xmlns="http://www.w3.org/2000/svg" xmlns:ev="http://www.w3.org/2001/xml-events" xmlns:ifc="http://www.ifcopenshell.org/ns" xmlns:xlink="http://www.w3.org/1999/xlink" baseProfile="full" data-scale="1/4&quot;=1'-0&quot;" height="541.6667064030964mm" id="root" version="1.1" viewBox="0 0 541.6667064030964 541.6667064030964" width="541.6667064030964mm">
  <defs/>
  <line class="GlobalId-0RMJ7XRk92nuLpd9bTMlOu IfcAnnotation PredefinedType-HIDDENLINE" x1="252.8966522216797" x2="252.85342407226562" y1="315.03045654296875" y2="313.677490234375"/>
  <line class="GlobalId-0RMJ7XRk92nuLpd9bTMlOu IfcAnnotation PredefinedType-HIDDENLINE" x1="252.85342407226562" x2="252.7288055419922" y1="313.677490234375" y2="312.36016845703125"/>
  <line class="GlobalId-0RMJ7XRk92nuLpd9bTMlOu IfcAnnotation PredefinedType-HIDDENLINE" x1="252.7288055419922" x2="252.51773071289062" y1="312.36016845703125" y2="311.07586669921875"/>
  <line class="GlobalId-0RMJ7XRk92nuLpd9bTMlOu IfcAnnotation PredefinedType-HIDDENLINE" x1="252.51773071289062" x2="252.22271728515625" y1="311.07586669921875" y2="309.82720947265625"/>
  <line class="GlobalId-0RMJ7XRk92nuLpd9bTMlOu IfcAnnotation PredefinedType-HIDDENLINE" x1="252.22271728515625" x2="251.84634399414062" y1="309.82720947265625" y2="308.6141357421875"/>
  <line class="GlobalId-0RMJ7XRk92nuLpd9bTMlOu IfcAnnotation PredefinedType-HIDDENLINE" x1="251.84634399414062" x2="251.3860321044922" y1="308.6141357421875" y2="307.4341125488281"/>
  <line class="GlobalId-0RMJ7XRk92nuLpd9bTMlOu IfcAnnotation PredefinedType-HIDDENLINE" x1="251.3860321044922" x2="250.841796875" y1="307.4341125488281" y2="306.292236328125"/>
  <line class="GlobalId-0RMJ7XRk92nuLpd9bTMlOu IfcAnnotation PredefinedType-HIDDENLINE" x1="250.841796875" x2="250.21365356445312" y1="306.292236328125" y2="305.18597412109375"/>
  <line class="GlobalId-0RMJ7XRk92nuLpd9bTMlOu IfcAnnotation PredefinedType-HIDDENLINE" x1="250.21365356445312" x2="249.50411987304688" y1="305.18597412109375" y2="304.11785888671875"/>
  <line class="GlobalId-0RMJ7XRk92nuLpd9bTMlOu IfcAnnotation PredefinedType-HIDDENLINE" x1="249.50411987304688" x2="248.71066284179688" y1="304.11785888671875" y2="303.0853576660156"/>
  <line class="GlobalId-0RMJ7XRk92nuLpd9bTMlOu IfcAnnotation PredefinedType-HIDDENLINE" x1="248.71066284179688" x2="247.8358154296875" y1="303.0853576660156" y2="302.09100341796875"/>
  <line class="GlobalId-0RMJ7XRk92nuLpd9bTMlOu IfcAnnotation PredefinedType-HIDDENLINE" x1="247.8358154296875" x2="246.87960815429688" y1="302.09100341796875" y2="301.134765625"/>
  <line class="GlobalId-0RMJ7XRk92nuLpd9bTMlOu IfcAnnotation PredefinedType-HIDDENLINE" x1="264.0101318359375" x2="266.12603759765625" y1="290.81982421875" y2="290.81982421875"/>
  <line class="GlobalId-0RMJ7XRk92nuLpd9bTMlOu IfcAnnotation PredefinedType-HIDDENLINE" x1="266.12603759765625" x2="265.37835693359375" y1="290.81982421875" y2="290.0721435546875"/>
  <line class="GlobalId-0RMJ7XRk92nuLpd9bTMlOu IfcAnnotation PredefinedType-HIDDENLINE" x1="265.37835693359375" x2="265.9836120605469" y1="290.0721435546875" y2="289.6474609375"/>
  <line class="GlobalId-0RMJ7XRk92nuLpd9bTMlOu IfcAnnotation PredefinedType-HIDDENLINE" x1="265.9836120605469" x2="267.5552673339844" y1="289.6474609375" y2="291.2191162109375"/>
  <line class="GlobalId-0RMJ7XRk92nuLpd9bTMlOu IfcAnnotation PredefinedType-HIDDENLINE" x1="267.5552673339844" x2="265.9836120605469" y1="291.2191162109375" y2="292.7882080078125"/>
  <line class="GlobalId-0RMJ7XRk92nuLpd9bTMlOu IfcAnnotation PredefinedType-HIDDENLINE" x1="265.9836120605469" x2="265.37835693359375" y1="292.7882080078125" y2="292.363525390625"/>
  <line class="GlobalId-0RMJ7XRk92nuLpd9bTMlOu IfcAnnotation PredefinedType-HIDDENLINE" x1="265.37835693359375" x2="266.12603759765625" y1="292.363525390625" y2="291.6158447265625"/>
  <line class="GlobalId-0RMJ7XRk92nuLpd9bTMlOu IfcAnnotation PredefinedType-HIDDENLINE" x1="266.12603759765625" x2="264.0101318359375" y1="291.6158447265625" y2="291.6158447265625"/>
  <line class="GlobalId-0RMJ7XRk92nuLpd9bTMlOu IfcAnnotation PredefinedType-HIDDENLINE" x1="264.0101318359375" x2="264.0101318359375" y1="291.6158447265625" y2="290.81982421875"/>
  <line class="GlobalId-0RMJ7XRk92nuLpd9bTMlOu IfcAnnotation PredefinedType-HIDDENLINE" x1="264.0101318359375" x2="261.8917236328125" y1="290.81982421875" y2="290.81982421875"/>
  <line class="GlobalId-0RMJ7XRk92nuLpd9bTMlOu IfcAnnotation PredefinedType-HIDDENLINE" x1="261.8917236328125" x2="262.6419372558594" y1="290.81982421875" y2="290.0721435546875"/>
  <line class="GlobalId-0RMJ7XRk92nuLpd9bTMlOu IfcAnnotation PredefinedType-HIDDENLINE" x1="262.6419372558594" x2="262.03411865234375" y1="290.0721435546875" y2="289.6474609375"/>
  <line class="GlobalId-0RMJ7XRk92nuLpd9bTMlOu IfcAnnotation PredefinedType-HIDDENLINE" x1="262.03411865234375" x2="260.46246337890625" y1="289.6474609375" y2="291.2191162109375"/>
  <line class="GlobalId-0RMJ7XRk92nuLpd9bTMlOu IfcAnnotation PredefinedType-HIDDENLINE" x1="260.46246337890625" x2="262.03411865234375" y1="291.2191162109375" y2="292.7882080078125"/>
  <line class="GlobalId-0RMJ7XRk92nuLpd9bTMlOu IfcAnnotation PredefinedType-HIDDENLINE" x1="262.03411865234375" x2="262.6419372558594" y1="292.7882080078125" y2="292.363525390625"/>
  <line class="GlobalId-0RMJ7XRk92nuLpd9bTMlOu IfcAnnotation PredefinedType-HIDDENLINE" x1="262.6419372558594" x2="261.8917236328125" y1="292.363525390625" y2="291.6158447265625"/>
  <line class="GlobalId-0RMJ7XRk92nuLpd9bTMlOu IfcAnnotation PredefinedType-HIDDENLINE" x1="261.8917236328125" x2="264.0101318359375" y1="291.6158447265625" y2="291.6158447265625"/>
  <line class="GlobalId-0RMJ7XRk92nuLpd9bTMlOu IfcAnnotation PredefinedType-HIDDENLINE" x1="275.12109375" x2="252.8966522216797" y1="286.455810546875" y2="286.455810546875"/>
  <line class="GlobalId-0RMJ7XRk92nuLpd9bTMlOu IfcAnnotation PredefinedType-HIDDENLINE" x1="252.8966522216797" x2="252.8966522216797" y1="286.455810546875" y2="315.03045654296875"/>
  <line class="GlobalId-0RMJ7XRk92nuLpd9bTMlOu IfcAnnotation PredefinedType-HIDDENLINE" x1="252.8966522216797" x2="275.12109375" y1="315.03045654296875" y2="315.03045654296875"/>
  <line class="GlobalId-0RMJ7XRk92nuLpd9bTMlOu IfcAnnotation PredefinedType-HIDDENLINE" x1="275.12109375" x2="275.12109375" y1="315.03045654296875" y2="286.455810546875"/>
  <line class="GlobalId-0RMJ7XRk92nuLpd9bTMlOu IfcAnnotation PredefinedType-HIDDENLINE" x1="275.12109375" x2="275.12109375" y1="286.455810546875" y2="286.455810546875"/>
  <line class="GlobalId-0RMJ7XRk92nuLpd9bTMlOu IfcAnnotation PredefinedType-HIDDENLINE" x1="246.87960815429688" x2="233.84605407714844" y1="301.134765625" y2="315.03045654296875"/>
  <line class="GlobalId-0RMJ7XRk92nuLpd9bTMlOu IfcAnnotation PredefinedType-HIDDENLINE" x1="233.84605407714844" x2="233.84605407714844" y1="315.03045654296875" y2="286.455810546875"/>
  <line class="GlobalId-0RMJ7XRk92nuLpd9bTMlOu IfcAnnotation PredefinedType-HIDDENLINE" x1="233.84605407714844" x2="252.8966522216797" y1="286.455810546875" y2="286.455810546875"/>
  <line class="GlobalId-0RMJ7XRk92nuLpd9bTMlOu IfcAnnotation PredefinedType-HIDDENLINE" x1="233.84605407714844" x2="252.8966522216797" y1="315.03045654296875" y2="315.03045654296875"/>
  <line class="GlobalId-3NPQOv1yv0zQJfTOh4pMA5 IfcAnnotation PredefinedType-HIDDENLINE" x1="78.58787536621094" x2="78.20894622802734" y1="311.284423828125" y2="307.329833984375"/>
  <line class="GlobalId-3NPQOv1yv0zQJfTOh4pMA5 IfcAnnotation PredefinedType-HIDDENLINE" x1="78.20894622802734" x2="77.07725524902344" y1="307.329833984375" y2="303.6880798339844"/>
  <line class="GlobalId-3NPQOv1yv0zQJfTOh4pMA5 IfcAnnotation PredefinedType-HIDDENLINE" x1="77.07725524902344" x2="75.90486907958984" y1="303.6880798339844" y2="301.43994140625"/>
  <line class="GlobalId-3NPQOv1yv0zQJfTOh4pMA5 IfcAnnotation PredefinedType-HIDDENLINE" x1="75.90486907958984" x2="74.4018783569336" y1="301.43994140625" y2="299.3393249511719"/>
  <line class="GlobalId-3NPQOv1yv0zQJfTOh4pMA5 IfcAnnotation PredefinedType-HIDDENLINE" x1="74.4018783569336" x2="72.5708236694336" y1="299.3393249511719" y2="297.38873291015625"/>
  <line class="GlobalId-3NPQOv1yv0zQJfTOh4pMA5 IfcAnnotation PredefinedType-HIDDENLINE" x1="88.11190032958984" x2="88.11190032958984" y1="279.5334167480469" y2="311.284423828125"/>
  <line class="GlobalId-3NPQOv1yv0zQJfTOh4pMA5 IfcAnnotation PredefinedType-HIDDENLINE" x1="88.11190032958984" x2="78.58787536621094" y1="311.284423828125" y2="311.284423828125"/>
  <line class="GlobalId-3NPQOv1yv0zQJfTOh4pMA5 IfcAnnotation PredefinedType-HIDDENLINE" x1="78.58787536621094" x2="78.58787536621094" y1="311.284423828125" y2="279.5334167480469"/>
  <line class="GlobalId-3NPQOv1yv0zQJfTOh4pMA5 IfcAnnotation PredefinedType-HIDDENLINE" x1="78.58787536621094" x2="88.11190032958984" y1="279.5334167480469" y2="279.5334167480469"/>
  <line class="GlobalId-3NPQOv1yv0zQJfTOh4pMA5 IfcAnnotation PredefinedType-HIDDENLINE" x1="88.11190032958984" x2="88.11190032958984" y1="279.5334167480469" y2="279.5334167480469"/>
  <line class="GlobalId-3NPQOv1yv0zQJfTOh4pMA5 IfcAnnotation PredefinedType-HIDDENLINE" x1="72.5708236694336" x2="59.53727340698242" y1="297.38873291015625" y2="311.284423828125"/>
  <line class="GlobalId-3NPQOv1yv0zQJfTOh4pMA5 IfcAnnotation PredefinedType-HIDDENLINE" x1="59.53727340698242" x2="59.53727340698242" y1="311.284423828125" y2="279.5334167480469"/>
  <line class="GlobalId-3NPQOv1yv0zQJfTOh4pMA5 IfcAnnotation PredefinedType-HIDDENLINE" x1="59.53727340698242" x2="78.58787536621094" y1="279.5334167480469" y2="279.5334167480469"/>
  <line class="GlobalId-3NPQOv1yv0zQJfTOh4pMA5 IfcAnnotation PredefinedType-HIDDENLINE" x1="82.95188903808594" x2="82.95188903808594" y1="284.29669189453125" y2="286.41259765625"/>
  <line class="GlobalId-3NPQOv1yv0zQJfTOh4pMA5 IfcAnnotation PredefinedType-HIDDENLINE" x1="82.95188903808594" x2="82.20420837402344" y1="286.41259765625" y2="285.6649169921875"/>
  <line class="GlobalId-3NPQOv1yv0zQJfTOh4pMA5 IfcAnnotation PredefinedType-HIDDENLINE" x1="82.20420837402344" x2="81.77950286865234" y1="285.6649169921875" y2="286.272705078125"/>
  <line class="GlobalId-3NPQOv1yv0zQJfTOh4pMA5 IfcAnnotation PredefinedType-HIDDENLINE" x1="81.77950286865234" x2="83.35115814208984" y1="286.272705078125" y2="287.8443603515625"/>
  <line class="GlobalId-3NPQOv1yv0zQJfTOh4pMA5 IfcAnnotation PredefinedType-HIDDENLINE" x1="83.35115814208984" x2="84.92281341552734" y1="287.8443603515625" y2="286.272705078125"/>
  <line class="GlobalId-3NPQOv1yv0zQJfTOh4pMA5 IfcAnnotation PredefinedType-HIDDENLINE" x1="84.92281341552734" x2="84.49810791015625" y1="286.272705078125" y2="285.6649169921875"/>
  <line class="GlobalId-3NPQOv1yv0zQJfTOh4pMA5 IfcAnnotation PredefinedType-HIDDENLINE" x1="84.49810791015625" x2="83.74788665771484" y1="285.6649169921875" y2="286.41259765625"/>
  <line class="GlobalId-3NPQOv1yv0zQJfTOh4pMA5 IfcAnnotation PredefinedType-HIDDENLINE" x1="83.74788665771484" x2="83.74788665771484" y1="286.41259765625" y2="284.29669189453125"/>
  <line class="GlobalId-3NPQOv1yv0zQJfTOh4pMA5 IfcAnnotation PredefinedType-HIDDENLINE" x1="83.74788665771484" x2="82.95188903808594" y1="284.29669189453125" y2="284.29669189453125"/>
  <line class="GlobalId-3NPQOv1yv0zQJfTOh4pMA5 IfcAnnotation PredefinedType-HIDDENLINE" x1="82.95188903808594" x2="82.95188903808594" y1="284.29669189453125" y2="282.1808166503906"/>
  <line class="GlobalId-3NPQOv1yv0zQJfTOh4pMA5 IfcAnnotation PredefinedType-HIDDENLINE" x1="82.95188903808594" x2="82.20420837402344" y1="282.1808166503906" y2="282.9284973144531"/>
  <line class="GlobalId-3NPQOv1yv0zQJfTOh4pMA5 IfcAnnotation PredefinedType-HIDDENLINE" x1="82.20420837402344" x2="81.77950286865234" y1="282.9284973144531" y2="282.3206787109375"/>
  <line class="GlobalId-3NPQOv1yv0zQJfTOh4pMA5 IfcAnnotation PredefinedType-HIDDENLINE" x1="81.77950286865234" x2="83.35115814208984" y1="282.3206787109375" y2="280.7490234375"/>
  <line class="GlobalId-3NPQOv1yv0zQJfTOh4pMA5 IfcAnnotation PredefinedType-HIDDENLINE" x1="83.35115814208984" x2="84.92281341552734" y1="280.7490234375" y2="282.3206787109375"/>
  <line class="GlobalId-3NPQOv1yv0zQJfTOh4pMA5 IfcAnnotation PredefinedType-HIDDENLINE" x1="84.92281341552734" x2="84.49810791015625" y1="282.3206787109375" y2="282.9284973144531"/>
  <line class="GlobalId-3NPQOv1yv0zQJfTOh4pMA5 IfcAnnotation PredefinedType-HIDDENLINE" x1="84.49810791015625" x2="83.74788665771484" y1="282.9284973144531" y2="282.1808166503906"/>
  <line class="GlobalId-3NPQOv1yv0zQJfTOh4pMA5 IfcAnnotation PredefinedType-HIDDENLINE" x1="83.74788665771484" x2="83.74788665771484" y1="282.1808166503906" y2="284.29669189453125"/>
  <line class="GlobalId-3NPQOv1yv0zQJfTOh4pMA5 IfcAnnotation PredefinedType-HIDDENLINE" x1="59.53727340698242" x2="78.58787536621094" y1="311.284423828125" y2="311.284423828125"/>
  <line class="GlobalId-2QBYHNbNf6jfKE7rxkcJGF IfcAnnotation PredefinedType-HIDDENLINE" x1="189.09710693359375" x2="189.0538787841797" y1="312.53564453125" y2="311.18267822265625"/>
  <line class="GlobalId-2QBYHNbNf6jfKE7rxkcJGF IfcAnnotation PredefinedType-HIDDENLINE" x1="189.0538787841797" x2="188.92926025390625" y1="311.18267822265625" y2="309.8653564453125"/>
  <line class="GlobalId-2QBYHNbNf6jfKE7rxkcJGF IfcAnnotation PredefinedType-HIDDENLINE" x1="188.92926025390625" x2="188.7181854248047" y1="309.8653564453125" y2="308.5810546875"/>
  <line class="GlobalId-2QBYHNbNf6jfKE7rxkcJGF IfcAnnotation PredefinedType-HIDDENLINE" x1="188.7181854248047" x2="188.42318725585938" y1="308.5810546875" y2="307.3323974609375"/>
  <line class="GlobalId-2QBYHNbNf6jfKE7rxkcJGF IfcAnnotation PredefinedType-HIDDENLINE" x1="188.42318725585938" x2="188.0467987060547" y1="307.3323974609375" y2="306.11932373046875"/>
  <line class="GlobalId-2QBYHNbNf6jfKE7rxkcJGF IfcAnnotation PredefinedType-HIDDENLINE" x1="188.0467987060547" x2="187.58648681640625" y1="306.11932373046875" y2="304.9393005371094"/>
  <line class="GlobalId-2QBYHNbNf6jfKE7rxkcJGF IfcAnnotation PredefinedType-HIDDENLINE" x1="187.58648681640625" x2="187.04226684570312" y1="304.9393005371094" y2="303.79742431640625"/>
  <line class="GlobalId-2QBYHNbNf6jfKE7rxkcJGF IfcAnnotation PredefinedType-HIDDENLINE" x1="187.04226684570312" x2="186.4141082763672" y1="303.79742431640625" y2="302.691162109375"/>
  <line class="GlobalId-2QBYHNbNf6jfKE7rxkcJGF IfcAnnotation PredefinedType-HIDDENLINE" x1="186.4141082763672" x2="185.70457458496094" y1="302.691162109375" y2="301.623046875"/>
  <line class="GlobalId-2QBYHNbNf6jfKE7rxkcJGF IfcAnnotation PredefinedType-HIDDENLINE" x1="185.70457458496094" x2="184.91111755371094" y1="301.623046875" y2="300.5905456542969"/>
  <line class="GlobalId-2QBYHNbNf6jfKE7rxkcJGF IfcAnnotation PredefinedType-HIDDENLINE" x1="184.91111755371094" x2="184.03628540039062" y1="300.5905456542969" y2="299.59619140625"/>
  <line class="GlobalId-2QBYHNbNf6jfKE7rxkcJGF IfcAnnotation PredefinedType-HIDDENLINE" x1="184.03628540039062" x2="183.08006286621094" y1="299.59619140625" y2="298.63995361328125"/>
  <line class="GlobalId-2QBYHNbNf6jfKE7rxkcJGF IfcAnnotation PredefinedType-HIDDENLINE" x1="208.147705078125" x2="189.09710693359375" y1="312.53564453125" y2="312.53564453125"/>
  <line class="GlobalId-2QBYHNbNf6jfKE7rxkcJGF IfcAnnotation PredefinedType-HIDDENLINE" x1="189.09710693359375" x2="189.09710693359375" y1="312.53564453125" y2="280.7846374511719"/>
  <line class="GlobalId-2QBYHNbNf6jfKE7rxkcJGF IfcAnnotation PredefinedType-HIDDENLINE" x1="189.09710693359375" x2="208.147705078125" y1="280.7846374511719" y2="280.7846374511719"/>
  <line class="GlobalId-2QBYHNbNf6jfKE7rxkcJGF IfcAnnotation PredefinedType-HIDDENLINE" x1="208.147705078125" x2="208.147705078125" y1="280.7846374511719" y2="312.53564453125"/>
  <line class="GlobalId-2QBYHNbNf6jfKE7rxkcJGF IfcAnnotation PredefinedType-HIDDENLINE" x1="208.147705078125" x2="208.147705078125" y1="312.53564453125" y2="312.53564453125"/>
  <line class="GlobalId-2QBYHNbNf6jfKE7rxkcJGF IfcAnnotation PredefinedType-HIDDENLINE" x1="198.6211395263672" x2="196.5052490234375" y1="285.94720458984375" y2="285.94720458984375"/>
  <line class="GlobalId-2QBYHNbNf6jfKE7rxkcJGF IfcAnnotation PredefinedType-HIDDENLINE" x1="196.5052490234375" x2="197.2529296875" y1="285.94720458984375" y2="286.69488525390625"/>
  <line class="GlobalId-2QBYHNbNf6jfKE7rxkcJGF IfcAnnotation PredefinedType-HIDDENLINE" x1="197.2529296875" x2="196.64767456054688" y1="286.69488525390625" y2="287.11956787109375"/>
  <line class="GlobalId-2QBYHNbNf6jfKE7rxkcJGF IfcAnnotation PredefinedType-HIDDENLINE" x1="196.64767456054688" x2="195.07601928710938" y1="287.11956787109375" y2="285.54791259765625"/>
  <line class="GlobalId-2QBYHNbNf6jfKE7rxkcJGF IfcAnnotation PredefinedType-HIDDENLINE" x1="195.07601928710938" x2="196.64767456054688" y1="285.54791259765625" y2="283.97625732421875"/>
  <line class="GlobalId-2QBYHNbNf6jfKE7rxkcJGF IfcAnnotation PredefinedType-HIDDENLINE" x1="196.64767456054688" x2="197.2529296875" y1="283.97625732421875" y2="284.4009704589844"/>
  <line class="GlobalId-2QBYHNbNf6jfKE7rxkcJGF IfcAnnotation PredefinedType-HIDDENLINE" x1="197.2529296875" x2="196.5052490234375" y1="284.4009704589844" y2="285.1486511230469"/>
  <line class="GlobalId-2QBYHNbNf6jfKE7rxkcJGF IfcAnnotation PredefinedType-HIDDENLINE" x1="196.5052490234375" x2="198.6211395263672" y1="285.1486511230469" y2="285.1486511230469"/>
  <line class="GlobalId-2QBYHNbNf6jfKE7rxkcJGF IfcAnnotation PredefinedType-HIDDENLINE" x1="198.6211395263672" x2="198.6211395263672" y1="285.1486511230469" y2="285.94720458984375"/>
  <line class="GlobalId-2QBYHNbNf6jfKE7rxkcJGF IfcAnnotation PredefinedType-HIDDENLINE" x1="198.6211395263672" x2="200.73956298828125" y1="285.94720458984375" y2="285.94720458984375"/>
  <line class="GlobalId-2QBYHNbNf6jfKE7rxkcJGF IfcAnnotation PredefinedType-HIDDENLINE" x1="200.73956298828125" x2="199.98934936523438" y1="285.94720458984375" y2="286.69488525390625"/>
  <line class="GlobalId-2QBYHNbNf6jfKE7rxkcJGF IfcAnnotation PredefinedType-HIDDENLINE" x1="199.98934936523438" x2="200.59715270996094" y1="286.69488525390625" y2="287.11956787109375"/>
  <line class="GlobalId-2QBYHNbNf6jfKE7rxkcJGF IfcAnnotation PredefinedType-HIDDENLINE" x1="200.59715270996094" x2="202.16880798339844" y1="287.11956787109375" y2="285.54791259765625"/>
  <line class="GlobalId-2QBYHNbNf6jfKE7rxkcJGF IfcAnnotation PredefinedType-HIDDENLINE" x1="202.16880798339844" x2="200.59715270996094" y1="285.54791259765625" y2="283.97625732421875"/>
  <line class="GlobalId-2QBYHNbNf6jfKE7rxkcJGF IfcAnnotation PredefinedType-HIDDENLINE" x1="200.59715270996094" x2="199.98934936523438" y1="283.97625732421875" y2="284.4009704589844"/>
  <line class="GlobalId-2QBYHNbNf6jfKE7rxkcJGF IfcAnnotation PredefinedType-HIDDENLINE" x1="199.98934936523438" x2="200.73956298828125" y1="284.4009704589844" y2="285.1486511230469"/>
  <line class="GlobalId-2QBYHNbNf6jfKE7rxkcJGF IfcAnnotation PredefinedType-HIDDENLINE" x1="200.73956298828125" x2="198.6211395263672" y1="285.1486511230469" y2="285.1486511230469"/>
  <line class="GlobalId-2QBYHNbNf6jfKE7rxkcJGF IfcAnnotation PredefinedType-HIDDENLINE" x1="183.08006286621094" x2="170.0465087890625" y1="298.63995361328125" y2="312.53564453125"/>
  <line class="GlobalId-2QBYHNbNf6jfKE7rxkcJGF IfcAnnotation PredefinedType-HIDDENLINE" x1="170.0465087890625" x2="170.0465087890625" y1="312.53564453125" y2="280.7846374511719"/>
  <line class="GlobalId-2QBYHNbNf6jfKE7rxkcJGF IfcAnnotation PredefinedType-HIDDENLINE" x1="170.0465087890625" x2="189.09710693359375" y1="280.7846374511719" y2="280.7846374511719"/>
  <line class="GlobalId-2QBYHNbNf6jfKE7rxkcJGF IfcAnnotation PredefinedType-HIDDENLINE" x1="170.0465087890625" x2="189.09710693359375" y1="312.53564453125" y2="312.53564453125"/>
  <line class="GlobalId-3RwweJnBHAHQhVGngwXjgT IfcAnnotation PredefinedType-HIDDENLINE" x1="131.02215576171875" x2="131.97837829589844" y1="323.9975280761719" y2="323.04132080078125"/>
  <line class="GlobalId-3RwweJnBHAHQhVGngwXjgT IfcAnnotation PredefinedType-HIDDENLINE" x1="131.97837829589844" x2="132.85321044921875" y1="323.04132080078125" y2="322.04693603515625"/>
  <line class="GlobalId-3RwweJnBHAHQhVGngwXjgT IfcAnnotation PredefinedType-HIDDENLINE" x1="132.85321044921875" x2="133.64666748046875" y1="322.04693603515625" y2="321.0144348144531"/>
  <line class="GlobalId-3RwweJnBHAHQhVGngwXjgT IfcAnnotation PredefinedType-HIDDENLINE" x1="133.64666748046875" x2="134.356201171875" y1="321.0144348144531" y2="319.9463195800781"/>
  <line class="GlobalId-3RwweJnBHAHQhVGngwXjgT IfcAnnotation PredefinedType-HIDDENLINE" x1="134.356201171875" x2="134.98435974121094" y1="319.9463195800781" y2="318.8400573730469"/>
  <line class="GlobalId-3RwweJnBHAHQhVGngwXjgT IfcAnnotation PredefinedType-HIDDENLINE" x1="134.98435974121094" x2="135.52859497070312" y1="318.8400573730469" y2="317.69818115234375"/>
  <line class="GlobalId-3RwweJnBHAHQhVGngwXjgT IfcAnnotation PredefinedType-HIDDENLINE" x1="135.52859497070312" x2="135.9888916015625" y1="317.69818115234375" y2="316.5181884765625"/>
  <line class="GlobalId-3RwweJnBHAHQhVGngwXjgT IfcAnnotation PredefinedType-HIDDENLINE" x1="135.9888916015625" x2="136.3652801513672" y1="316.5181884765625" y2="315.30511474609375"/>
  <line class="GlobalId-3RwweJnBHAHQhVGngwXjgT IfcAnnotation PredefinedType-HIDDENLINE" x1="136.3652801513672" x2="136.6602783203125" y1="315.30511474609375" y2="314.0564270019531"/>
  <line class="GlobalId-3RwweJnBHAHQhVGngwXjgT IfcAnnotation PredefinedType-HIDDENLINE" x1="136.6602783203125" x2="136.87136840820312" y1="314.0564270019531" y2="312.77215576171875"/>
  <line class="GlobalId-3RwweJnBHAHQhVGngwXjgT IfcAnnotation PredefinedType-HIDDENLINE" x1="136.87136840820312" x2="136.9959716796875" y1="312.77215576171875" y2="311.4548034667969"/>
  <line class="GlobalId-3RwweJnBHAHQhVGngwXjgT IfcAnnotation PredefinedType-HIDDENLINE" x1="136.9959716796875" x2="137.03921508789062" y1="311.4548034667969" y2="310.10186767578125"/>
  <line class="GlobalId-3RwweJnBHAHQhVGngwXjgT IfcAnnotation PredefinedType-HIDDENLINE" x1="131.02215576171875" x2="117.98860931396484" y1="323.9975280761719" y2="310.10186767578125"/>
  <line class="GlobalId-3RwweJnBHAHQhVGngwXjgT IfcAnnotation PredefinedType-HIDDENLINE" x1="117.98860931396484" x2="117.98860931396484" y1="310.10186767578125" y2="284.7010498046875"/>
  <line class="GlobalId-3RwweJnBHAHQhVGngwXjgT IfcAnnotation PredefinedType-HIDDENLINE" x1="117.98860931396484" x2="137.03921508789062" y1="284.7010498046875" y2="284.7010498046875"/>
  <line class="GlobalId-3RwweJnBHAHQhVGngwXjgT IfcAnnotation PredefinedType-HIDDENLINE" x1="137.03921508789062" x2="143.389404296875" y1="284.7010498046875" y2="284.7010498046875"/>
  <line class="GlobalId-3RwweJnBHAHQhVGngwXjgT IfcAnnotation PredefinedType-HIDDENLINE" x1="143.389404296875" x2="143.389404296875" y1="284.7010498046875" y2="310.10186767578125"/>
  <line class="GlobalId-3RwweJnBHAHQhVGngwXjgT IfcAnnotation PredefinedType-HIDDENLINE" x1="143.389404296875" x2="137.03921508789062" y1="310.10186767578125" y2="310.10186767578125"/>
  <line class="GlobalId-3RwweJnBHAHQhVGngwXjgT IfcAnnotation PredefinedType-HIDDENLINE" x1="137.03921508789062" x2="137.03921508789062" y1="310.10186767578125" y2="284.7010498046875"/>
  <line class="GlobalId-3RwweJnBHAHQhVGngwXjgT IfcAnnotation PredefinedType-HIDDENLINE" x1="139.81631469726562" x2="139.81631469726562" y1="289.46435546875" y2="291.5802307128906"/>
  <line class="GlobalId-3RwweJnBHAHQhVGngwXjgT IfcAnnotation PredefinedType-HIDDENLINE" x1="139.81631469726562" x2="139.06863403320312" y1="291.5802307128906" y2="290.8325500488281"/>
  <line class="GlobalId-3RwweJnBHAHQhVGngwXjgT IfcAnnotation PredefinedType-HIDDENLINE" x1="139.06863403320312" x2="138.6439208984375" y1="290.8325500488281" y2="291.44036865234375"/>
  <line class="GlobalId-3RwweJnBHAHQhVGngwXjgT IfcAnnotation PredefinedType-HIDDENLINE" x1="138.6439208984375" x2="140.21304321289062" y1="291.44036865234375" y2="293.01202392578125"/>
  <line class="GlobalId-3RwweJnBHAHQhVGngwXjgT IfcAnnotation PredefinedType-HIDDENLINE" x1="140.21304321289062" x2="141.78469848632812" y1="293.01202392578125" y2="291.44036865234375"/>
  <line class="GlobalId-3RwweJnBHAHQhVGngwXjgT IfcAnnotation PredefinedType-HIDDENLINE" x1="141.78469848632812" x2="141.3599853515625" y1="291.44036865234375" y2="290.8325500488281"/>
  <line class="GlobalId-3RwweJnBHAHQhVGngwXjgT IfcAnnotation PredefinedType-HIDDENLINE" x1="141.3599853515625" x2="140.6123046875" y1="290.8325500488281" y2="291.5802307128906"/>
  <line class="GlobalId-3RwweJnBHAHQhVGngwXjgT IfcAnnotation PredefinedType-HIDDENLINE" x1="140.6123046875" x2="140.6123046875" y1="291.5802307128906" y2="289.46435546875"/>
  <line class="GlobalId-3RwweJnBHAHQhVGngwXjgT IfcAnnotation PredefinedType-HIDDENLINE" x1="140.6123046875" x2="139.81631469726562" y1="289.46435546875" y2="289.46435546875"/>
  <line class="GlobalId-3RwweJnBHAHQhVGngwXjgT IfcAnnotation PredefinedType-HIDDENLINE" x1="139.81631469726562" x2="139.81631469726562" y1="289.46435546875" y2="287.34844970703125"/>
  <line class="GlobalId-3RwweJnBHAHQhVGngwXjgT IfcAnnotation PredefinedType-HIDDENLINE" x1="139.81631469726562" x2="139.06863403320312" y1="287.34844970703125" y2="288.09613037109375"/>
  <line class="GlobalId-3RwweJnBHAHQhVGngwXjgT IfcAnnotation PredefinedType-HIDDENLINE" x1="139.06863403320312" x2="138.6439208984375" y1="288.09613037109375" y2="287.48834228515625"/>
  <line class="GlobalId-3RwweJnBHAHQhVGngwXjgT IfcAnnotation PredefinedType-HIDDENLINE" x1="138.6439208984375" x2="140.21304321289062" y1="287.48834228515625" y2="285.91668701171875"/>
  <line class="GlobalId-3RwweJnBHAHQhVGngwXjgT IfcAnnotation PredefinedType-HIDDENLINE" x1="140.21304321289062" x2="141.78469848632812" y1="285.91668701171875" y2="287.48834228515625"/>
  <line class="GlobalId-3RwweJnBHAHQhVGngwXjgT IfcAnnotation PredefinedType-HIDDENLINE" x1="141.78469848632812" x2="141.3599853515625" y1="287.48834228515625" y2="288.09613037109375"/>
  <line class="GlobalId-3RwweJnBHAHQhVGngwXjgT IfcAnnotation PredefinedType-HIDDENLINE" x1="141.3599853515625" x2="140.6123046875" y1="288.09613037109375" y2="287.34844970703125"/>
  <line class="GlobalId-3RwweJnBHAHQhVGngwXjgT IfcAnnotation PredefinedType-HIDDENLINE" x1="140.6123046875" x2="140.6123046875" y1="287.34844970703125" y2="289.46435546875"/>
  <line class="GlobalId-3RwweJnBHAHQhVGngwXjgT IfcAnnotation PredefinedType-HIDDENLINE" x1="117.98860931396484" x2="137.03921508789062" y1="310.10186767578125" y2="310.10186767578125"/>
</svg>
